{
    "relationships": [
        {
            "relationshipId": 1,
            "relationshipName": "user",
            "otherEntityName": "user",
            "relationshipType": "one-to-one",
            "otherEntityField": "login",
            "ownerSide": false
        }
    ],
    "fields": [
        {
            "fieldId": 1,
            "fieldName": "weekly_goal",
            "fieldType": "Integer",
            "fieldValidateRules": [
                "required",
                "min",
                "max"
            ],
            "fieldValidateRulesMin": "10",
            "fieldValidateRulesMax": "21"
        },
        {
            "fieldId": 2,
            "fieldName": "weight_units",
            "fieldType": "Units",
            "fieldValues": "kg,lb",
            "fieldValidateRules": [
                "required"
            ]
        }
    ],
    "changelogDate": "20160104174836",
    "dto": "no",
    "service": "no",
    "pagination": "infinite-scroll"
}
